{
    "$include-base-content-table-v1": "true",
    "$include-base-content-div-table-v1": "true",
    "$include-base-page-logger": "true",
    "$include-base-palette": "true",
    "$include-office-colors": "true",
    "$include-components-blocks-advertisement-v1": "false",
    "$include-components-blocks-arrow-box-v1": "true",
    "$include-components-blocks-content-bar-v1": "false",
    "$include-components-blocks-content-bar-v2": "false",
    "$include-components-blocks-content-bar-v3": "false",
    "$include-components-blocks-content-bar-v4": "false",
    "$include-components-blocks-content-bar-v5": "false",
    "$include-components-blocks-content-bar-v6": "false",
    "$include-components-blocks-content-bar-v1-color-variants": "true",
    "$include-components-blocks-content-block-v1": "true",
    "$include-components-blocks-content-block-v2": "true",
    "$include-components-blocks-content-block-v3": "true",
    "$include-components-blocks-content-block-v4": "true",
    "$include-components-blocks-content-block-v5": "true",
    "$include-components-blocks-content-block-v6": "true",
    "$include-components-blocks-content-block-v1-title-color-variants": "true",
    "$include-components-blocks-content-block-v1-color-variants": "true",
    "$include-components-blocks-content-teaser-v1": "true",
    "$include-components-blocks-cover-v1": "true",
    "$include-components-blocks-feature-block-v1": "true",
    "$include-components-blocks-feature-block-v2": "true",
    "$include-components-blocks-feature-block-v3": "true",
    "$include-components-blocks-feature-block-v4": "true",
    "$include-components-blocks-feature-block-v5": "true",
    "$include-components-blocks-feature-block-v6": "true",
    "$include-components-blocks-feature-block-v7": "true",
    "$include-components-blocks-feature-block-v8": "true",
    "$include-components-blocks-feature-block-v9": "true",
    "$include-components-blocks-feature-block-v10": "true",
    "$include-components-blocks-feature-block-v11": "true",
    "$include-components-blocks-feature-block-v12": "true",
    "$include-components-blocks-feature-block-v13": "true",
    "$include-components-blocks-ibox-v1": "true",
    "$include-components-blocks-page-section-v1": "true",
    "$include-components-blocks-product-box-v1": "true",
    "$include-components-blocks-service-item-v1": "true",
    "$include-components-blocks-sidebar-widget-v1": "true",
    "$include-components-blocks-tile-v1": "true",
    "$include-components-blocks-tile-v2": "true",
    "$include-components-call-to-action-v1": "true",
    "$include-components-call-to-action-v2": "true",
    "$include-components-cards-card-v1": "true",
    "$include-components-cards-card-v2": "true",
    "$include-components-cards-module-card-v1": "$acms-in-admin",
    "$include-components-dashboard-stat-counter-v1": "true",
    "$include-components-dashboard-statinfo-v1": "true",
    "$include-components-dashboard-statlist-v1": "true",
    "$include-components-dashboard-statlist-v2": "true",
    "$include-components-forms-autocomplete-v1": "true",
    "$include-components-forms-buttons-button-v2": "true",
    "$include-components-forms-buttons-button-v3": "true",
    "$include-components-forms-buttons-button-v4": "true",
    "$include-shortcut-buttons": "true",
    "$include-components-forms-buttons-group-v1": "true",
    "$include-components-forms-buttons-group-v2": "true",
    "$include-components-forms-buttons-toolbar-v1": "true",
    "$include-components-forms-form-v2": "true",
    "$include-components-forms-form-v3": "true",
    "$include-components-forms-form-field-v1": "true",
    "$include-components-forms-form-field-file-v1": "true",
    "$include-components-forms-form-field-file-v2": "true",
    "$include-components-forms-form-field-file-v3": "true",
    "$include-components-forms-form-field-file-v4": "true",
    "$include-components-forms-form-field-file-v5": "true",
    "$include-components-forms-form-field-file-v6": "true",
    "$include-components-forms-form-field-radiocheck-list-v1": "true",
    "$include-components-forms-form-field-radiocheck-v1": "true",
    "$include-components-forms-form-field-radiocheck-v2": "true",
    "$include-components-forms-form-field-radiocheck-v3-4": "true",
    "$include-components-forms-form-field-textarea-paper-v1": "true",
    "$include-components-forms-form-field-group": "true",
    "$include-components-forms-form-group-v1": "true",
    "$include-components-forms-form-group-v2": "true",
    "$include-components-forms-inputsearch-v1": "true",
    "$include-components-forms-switch-v1": "true",
    "$include-components-forms-switch-v2": "true",
    "$include-components-forms-validation": "true",
    "$include-components-lists-check-list-v1": "true",
    "$include-components-lists-collection-v1": "true",
    "$include-components-lists-dual-list-v1": "true",
    "$include-components-lists-items-v1": "true",
    "$include-components-lists-list": "true",
    "$include-components-lists-list-alphabetical-v1": "true",
    "$include-components-misc-badge-v1": "true",
    "$include-components-misc-funding-bar-v1": "true",
    "$include-components-misc-label-v1": "true",
    "$include-components-misc-label-v2": "true",
    "$include-components-misc-energy-label": "true",
    "$include-misc-energy-labels": "true",
    "$include-components-misc-notification-badge-v1": "true",
    "$include-components-misc-tags-tag-v1": "true",
    "$include-components-misc-tags-tag-v2": "true",
    "$include-components-misc-tags-tag-v3": "true",
    "$include-components-misc-tags-tagcloud-v1": "true",
    "$include-components-misc-tags-tagcloud-v2": "true",
    "$include-components-organigramm-v1": "true",
    "$include-components-organigramm-v2": "true",
    "$include-components-page-title-v1": "true",
    "$include-components-page-title-v2": "true",
    "$include-components-page-title-v3": "true",
    "$include-components-page-title-v4": "true",
    "$include-components-page-title-v5": "true",
    "$include-components-page-title-v6": "true",
    "$include-components-page-title-v7": "true",
    "$include-components-page-title-v8": "true",
    "$include-components-panel-v1": "true",
    "$include-components-panel-v2": "true",
    "$include-components-pricing-price-plan-v1": "false",
    "$include-components-pricing-price-plan-v2": "false",
    "$include-components-pricing-price-plan-v3": "false",
    "$include-components-pricing-price-tag-v1": "false",
    "$include-components-quotes-v1": "true",
    "$include-components-quotes-v2": "true",
    "$include-components-quotes-v3": "true",
    "$include-components-quotes-v4": "true",
    "$include-components-quotes-v5": "true",
    "$include-components-quotes-v6": "true",
    "$include-components-steps-steplist-v1": "true",
    "$include-components-steps-steplist-v2": "true",
    "$include-base-styles-font-smiles": "true",
    "$include-base-styles-font-socials": "true",
    "$include-datetime-picker-v1": "false",
    "$include-editor-amaryllis-v1": "true",
    "$include-utility-critic": "true",
    "$include-utility-footnotes": "true",
    "$include-helpers-hamburger": "true",
    "$include-helpers-hamburger-v1": "true",
    "$include-helpers-hamburger-v2": "true",
    "$include-helpers-hamburger-v3": "true",
    "$include-helpers-hamburger-v4": "true",
    "$include-helpers-hamburger-v5": "true",
    "$include-helpers-hamburger-v6": "true",
    "$include-helpers-hamburger-v7": "true",
    "$include-helpers-hamburger-v8": "true",
    "$include-helpers-hamburger-v9": "true",
    "$include-helpers-hamburger-v10": "true",
    "$include-helpers-hamburger-v11": "true",
    "$include-helpers-hamburger-v12": "true",
    "$include-utility-headerlink": "true",
    "$include-utility-kdb": "true",
    "$include-utility-line-v1": "true",
    "$include-helpers-overlay-v1": "true",
    "$include-helpers-overlay-v2": "true",
    "$include-helpers-placeholder-v1": "true",
    "$include-utility-single-spinners": "true",
    "$include-utility-multi-spinners": "true",
    "$include-navs-application-launcher-v1": "true",
    "$include-informations-alert-v1": "true",
    "$include-informations-alert-v2": "true",
    "$include-informations-alert-v3": "true",
    "$include-informations-info-box-v1": "false",
    "$include-informations-messages-message-v1": "true",
    "$include-informations-modal-v1": "false",
    "$include-informations-modal-v2": "false",
    "$include-informations-popover-v1": "false",
    "$include-informations-tooltip-v1": "true",
    "$include-informations-update-bars-v1": "false",
    "$include-informations-window-v1": "false",
    "$include-media-audio-player-v1": "true",
    "$include-media-audio-player-v2": "true",
    "$include-media-comments-v1": "true",
    "$include-media-comments-v2": "true",
    "$include-media-filesystem-file-list-v1": "false",
    "$include-media-filesystem-file-tree-v1": "false",
    "$include-media-grid-v1": "true",
    "$include-media-image-avatar-v1": "true",
    "$include-media-image-gallery-v1": "true",
    "$include-media-image-gallery-v2": "true",
    "$include-media-image-image-hover": "false",
    "$include-media-image-lightbox-v1": "true",
    "$include-media-image-slider-v1": "true",
    "$include-media-media-manager": "false",
    "$include-media": "true",
    "$include-media-object": "true",
    "$include-nav-breadcrumb-v1": "true",
    "$include-nav-breadcrumb-v2": "true",
    "$include-nav-breadcrumb-v3": "true",
    "$include-navs-paginations-pager-v1": "true",
    "$include-navs-paginations-pager-v2": "true",
    "$include-navs-paginations-pagination-v1": "true",
    "$include-nav-panel-ticker-v1": "true",
    "$include-navs-accordion-v1": "false",
    "$include-navs-context-menu-v1": "true",
    "$include-navs-nav-v1": "true",
    "$include-navs-navbar-v1": "true",
    "$include-navs-offcanvas-v1": "false",
    "$include-navs-offcanvas-v2": "false",
    "$include-navs-offcanvas-v3": "false",
    "$include-navs-sidebar-v1": "true",
    "$include-navs-sidebar-v2": "true",
    "$include-navs-table-of-contents-v1": "true",
    "$include-navs-tabs-v1": "true",
    "$include-navs-tabs-v2": "true",
    "$include-content-nav-tabs-v1": "false",
    "$include-navs-dropdown-v1": "true",
    "$include-navs-dropdown-v2": "true",
    "$include-navs-fixed-sidebar-v1": "true",
    "$include-profile-notes-paper-notes-v1": "true",
    "$include-profile-notes-tipbox-v1": "true",
    "$include-profile-tasks-task-list-v1": "true",
    "$include-profile-tasks-task-list-v2": "true",
    "$include-profile-timeline-v1": "true",
    "$include-profile-timeline-v2": "true",
    "$include-roundings": "true",
    "$include-widget-pie-chart-v1": "true",
    "$include-widget-clock-1": "true",
    "$include-utility-cookie-bar-1": "false",
    "$include-utility-cookie-bar-2": "false",
    "$include-utility-cookie-container-1": "false",
    "$include-widget-countdown-1": "true",
    "$include-widget-flipbox-v1": "true",
    "$include-widget-progress-v1": "true",
    "$include-widget-progress-v2": "false",
    "$include-widget-progress-v3": "false",
    "$include-widget-svg-pie-chart-v1": "true",
    "$include-timeline-1": "true"
}